module mdaca-zero-trust

go 1.17

require (
	github.com/aws/aws-lambda-go v1.27.0
	github.com/aws/aws-sdk-go v1.42.17
	github.com/gin-gonic/gin v1.7.7
	github.com/hashicorp/vault/api v1.3.0
	github.com/magiconair/properties v1.8.5
)

require (
	github.com/armon/go-metrics v0.3.9 // indirect
	github.com/armon/go-radix v1.0.0 // indirect
	github.com/cenkalti/backoff/v3 v3.0.0 // indirect
	github.com/fatih/color v1.7.0 // indirect
	github.com/gin-contrib/sse v0.1.0 // indirect
	github.com/go-playground/locales v0.13.0 // indirect
	github.com/go-playground/universal-translator v0.17.0 // indirect
	github.com/go-playground/validator/v10 v10.4.1 // indirect
	github.com/golang/protobuf v1.5.2 // indirect
	github.com/golang/snappy v0.0.4 // indirect
	github.com/hashicorp/errwrap v1.1.0 // indirect
	github.com/hashicorp/go-cleanhttp v0.5.1 // indirect
	github.com/hashicorp/go-hclog v0.16.2 // indirect
	github.com/hashicorp/go-immutable-radix v1.3.1 // indirect
	github.com/hashicorp/go-multierror v1.1.1 // indirect
	github.com/hashicorp/go-plugin v1.4.3 // indirect
	github.com/hashicorp/go-retryablehttp v0.6.6 // indirect
	github.com/hashicorp/go-rootcerts v1.0.2 // indirect
	github.com/hashicorp/go-secure-stdlib/mlock v0.1.1 // indirect
	github.com/hashicorp/go-secure-stdlib/parseutil v0.1.1 // indirect
	github.com/hashicorp/go-secure-stdlib/strutil v0.1.1 // indirect
	github.com/hashicorp/go-sockaddr v1.0.2 // indirect
	github.com/hashicorp/go-uuid v1.0.2 // indirect
	github.com/hashicorp/go-version v1.2.0 // indirect
	github.com/hashicorp/golang-lru v0.5.5-0.20210104140557-80c98217689d // indirect
	github.com/hashicorp/hcl v1.0.0 // indirect
	github.com/hashicorp/vault/sdk v0.3.0 // indirect
	github.com/hashicorp/yamux v0.0.0-20180604194846-3520598351bb // indirect
	github.com/jmespath/go-jmespath v0.4.0 // indirect
	github.com/json-iterator/go v1.1.9 // indirect
	github.com/leodido/go-urn v1.2.0 // indirect
	github.com/mattn/go-colorable v0.1.8 // indirect
	github.com/mattn/go-isatty v0.0.12 // indirect
	github.com/mitchellh/copystructure v1.0.0 // indirect
	github.com/mitchellh/go-homedir v1.1.0 // indirect
	github.com/mitchellh/go-testing-interface v1.0.0 // indirect
	github.com/mitchellh/mapstructure v1.4.2 // indirect
	github.com/mitchellh/reflectwalk v1.0.0 // indirect
	github.com/modern-go/concurrent v0.0.0-20180306012644-bacd9c7ef1dd // indirect
	github.com/modern-go/reflect2 v1.0.1 // indirect
	github.com/oklog/run v1.0.0 // indirect
	github.com/pierrec/lz4 v2.5.2+incompatible // indirect
	github.com/ryanuber/go-glob v1.0.0 // indirect
	github.com/ugorji/go/codec v1.1.7 // indirect
	go.uber.org/atomic v1.9.0 // indirect
	golang.org/x/crypto v0.0.0-20210711020723-a769d52b0f97 // indirect
	golang.org/x/net v0.0.0-20210805182204-aaa1db679c0d // indirect
	golang.org/x/sys v0.0.0-20210816183151-1e6c022a8912 // indirect
	golang.org/x/text v0.3.6 // indirect
	golang.org/x/time v0.0.0-20210220033141-f8bda1e9f3ba // indirect
	google.golang.org/genproto v0.0.0-20200526211855-cb27e3aa2013 // indirect
	google.golang.org/grpc v1.41.0 // indirect
	google.golang.org/protobuf v1.26.0 // indirect
	gopkg.in/check.v1 v1.0.0-20201130134442-10cb98267c6c // indirect
	gopkg.in/square/go-jose.v2 v2.5.1 // indirect
	gopkg.in/yaml.v2 v2.4.0 // indirect
)
